{
  "kind": "collectionType",
  "collectionName": "cargas_combustibles",
  "info": {
    "singularName": "cargas-combustible",
    "pluralName": "cargas-combustibles",
    "displayName": "cargasCombustible",
    "description": ""
  },
  "options": {
    "draftAndPublish": true
  },
  "pluginOptions": {},
  "attributes": {
    "num": {
      "type": "uid",
      "required": true
    },
    "numFolio": {
      "type": "string",
      "required": true,
      "unique": true
    },
    "litrosCargados": {
      "type": "decimal",
      "required": true
    },
    "fecha": {
      "type": "datetime",
      "required": true
    },
    "kilometraje": {
      "type": "biginteger",
      "required": true
    },
    "comentarios": {
      "type": "text",
      "default": "Sin comentarios"
    },
    "costoTotal": {
      "type": "decimal",
      "required": true
    },
    "vehiculo": {
      "type": "relation",
      "relation": "oneToMany",
      "target": "api::vehiculo.vehiculo"
    }
  }
}
